{"items":[{"external_urls":{"spotify":"https://open.spotify.com/artist/3WrFJ7ztbogyGnTHbHJFl2"},"followers":{"href":null,"total":3249015},"genres":["british invasion","classic rock","merseybeat","protopunk","psychedelic rock","rock"],"href":"https://api.spotify.com/v1/artists/3WrFJ7ztbogyGnTHbHJFl2","id":"3WrFJ7ztbogyGnTHbHJFl2","images":[{"height":1000,"url":"https://i.scdn.co/image/934c57df9fbdbbaa5e93b55994a4cb9571fd2085","width":1000},{"height":640,"url":"https://i.scdn.co/image/5f70d98d3e4616a02a3afe2aa9a840b9157b92a1","width":640},{"height":200,"url":"https://i.scdn.co/image/7fe1a693adc52e274962f1c61d76ca9ccc62c191","width":200},{"height":64,"url":"https://i.scdn.co/image/857b1ce5b1b372b873b0a8bdb3ff8023b6c61d39","width":64}],"name":"The Beatles","popularity":84,"type":"artist","uri":"spotify:artist:3WrFJ7ztbogyGnTHbHJFl2"},{"external_urls":{"spotify":"https://open.spotify.com/artist/053q0ukIDRgzwTr4vNSwab"},"followers":{"href":null,"total":573626},"genres":["alternative dance","chillwave","escape room","grave wave","indie pop","indie poptimism","indie r&b","indietronica","metropopolis","new rave","pop","shimmer pop","synthpop"],"href":"https://api.spotify.com/v1/artists/053q0ukIDRgzwTr4vNSwab","id":"053q0ukIDRgzwTr4vNSwab","images":[{"height":750,"url":"https://i.scdn.co/image/bf093be59129a2cc4e2e37a01f544130567b4d49","width":1000},{"height":480,"url":"https://i.scdn.co/image/b306c314992fc265f56564c6f91b893e114c3072","width":640},{"height":150,"url":"https://i.scdn.co/image/e59b95bdb40b5796a82d7b508996716fe91fb2da","width":200},{"height":48,"url":"https://i.scdn.co/image/6765591749e2675280cd5750961fb90c18f8fc1b","width":64}],"name":"Grimes","popularity":65,"type":"artist","uri":"spotify:artist:053q0ukIDRgzwTr4vNSwab"},{"external_urls":{"spotify":"https://open.spotify.com/artist/1xcMOgFUM1IYZE22YjCvsL"},"followers":{"href":null,"total":42534},"genres":["chillwave","deep indie r&b","escape room","gauze pop","indie poptimism","indie psych-rock","indie r&b","indietronica","shimmer pop","shimmer psych","synthpop","vapor pop","vapor soul"],"href":"https://api.spotify.com/v1/artists/1xcMOgFUM1IYZE22YjCvsL","id":"1xcMOgFUM1IYZE22YjCvsL","images":[{"height":640,"url":"https://i.scdn.co/image/1e89e1dd18e868422b13db813ff403508c32836b","width":640},{"height":320,"url":"https://i.scdn.co/image/d0f0b47102ceda84e1865ae78a9e3e3a0620e6d0","width":320},{"height":160,"url":"https://i.scdn.co/image/8983e7154e818fc791f60cb47e4f515d3d3cbb05","width":160}],"name":"Tei Shi","popularity":58,"type":"artist","uri":"spotify:artist:1xcMOgFUM1IYZE22YjCvsL"},{"external_urls":{"spotify":"https://open.spotify.com/artist/3iOvXCl6edW5Um0fXEBRXy"},"followers":{"href":null,"total":2434128},"genres":["alternative dance","downtempo","dream pop","indietronica","synthpop"],"href":"https://api.spotify.com/v1/artists/3iOvXCl6edW5Um0fXEBRXy","id":"3iOvXCl6edW5Um0fXEBRXy","images":[{"height":640,"url":"https://i.scdn.co/image/922163afa546eca372c27be4513a481de06e9481","width":640},{"height":320,"url":"https://i.scdn.co/image/8ef506656acfc2bc1449b9a963026bd7296df2e2","width":320},{"height":160,"url":"https://i.scdn.co/image/7e7c16105b54b9abcc056d25b3fb549372a8df38","width":160}],"name":"The xx","popularity":77,"type":"artist","uri":"spotify:artist:3iOvXCl6edW5Um0fXEBRXy"},{"external_urls":{"spotify":"https://open.spotify.com/artist/6nxWCVXbOlEVRexSbLsTer"},"followers":{"href":null,"total":1032771},"genres":["aussietronica","australian alternative rock","australian dance","downtempo","pop","tropical house"],"href":"https://api.spotify.com/v1/artists/6nxWCVXbOlEVRexSbLsTer","id":"6nxWCVXbOlEVRexSbLsTer","images":[{"height":640,"url":"https://i.scdn.co/image/8d84f7b313ca9bafcefcf37d4e59a8265c7d3fff","width":640},{"height":320,"url":"https://i.scdn.co/image/72e229bba3cbb402a13117987ce1c42df4af10c6","width":320},{"height":160,"url":"https://i.scdn.co/image/57bdb801fbdf116402e339c0b0624f6df19d4a10","width":160}],"name":"Flume","popularity":78,"type":"artist","uri":"spotify:artist:6nxWCVXbOlEVRexSbLsTer"},{"external_urls":{"spotify":"https://open.spotify.com/artist/5Q81rlcTFh3k6DQJXPdsot"},"followers":{"href":null,"total":194597},"genres":["deep indie r&b","house","indie r&b","tropical house"],"href":"https://api.spotify.com/v1/artists/5Q81rlcTFh3k6DQJXPdsot","id":"5Q81rlcTFh3k6DQJXPdsot","images":[{"height":640,"url":"https://i.scdn.co/image/58cc00a9956551f2724d542070c67b76a37c673d","width":640},{"height":320,"url":"https://i.scdn.co/image/9ba754ee67b33e5b58985c6d5293f4536802a909","width":320},{"height":160,"url":"https://i.scdn.co/image/335a2ca95c9d29b770d66f8a9a4bc0411684fed2","width":160}],"name":"Mura Masa","popularity":73,"type":"artist","uri":"spotify:artist:5Q81rlcTFh3k6DQJXPdsot"},{"external_urls":{"spotify":"https://open.spotify.com/artist/2kGBy2WHvF0VdZyqiVCkDT"},"followers":{"href":null,"total":262432},"genres":["chamber pop","folk-pop","freak folk","indie folk","indie pop","indie r&b","indie rock","indietronica","neo-psychedelic","new americana","shimmer pop","singer-songwriter","stomp and holler"],"href":"https://api.spotify.com/v1/artists/2kGBy2WHvF0VdZyqiVCkDT","id":"2kGBy2WHvF0VdZyqiVCkDT","images":[{"height":640,"url":"https://i.scdn.co/image/b0471b702a9cf9bd78bef6c9cfa71dd282572bc2","width":640},{"height":320,"url":"https://i.scdn.co/image/e7d68c1bb9bd2f7f47047317bd3581873931092e","width":320},{"height":160,"url":"https://i.scdn.co/image/7477524a9d84f1ddfe60ae64eefa8459f8360be6","width":160}],"name":"Father John Misty","popularity":70,"type":"artist","uri":"spotify:artist:2kGBy2WHvF0VdZyqiVCkDT"},{"external_urls":{"spotify":"https://open.spotify.com/artist/71zBpZsf6YDEBfWayKdAOA"},"followers":{"href":null,"total":64598},"genres":["deep indie r&b","gauze pop","indie poptimism","indie r&b","indietronica","vapor pop","vapor soul"],"href":"https://api.spotify.com/v1/artists/71zBpZsf6YDEBfWayKdAOA","id":"71zBpZsf6YDEBfWayKdAOA","images":[{"height":563,"url":"https://i.scdn.co/image/1e58773f2213359655e217240c2f8b3caf34fe23","width":1000},{"height":360,"url":"https://i.scdn.co/image/c6ebad76f2f462cfde379800f10ea8dcbb74d4e3","width":640},{"height":113,"url":"https://i.scdn.co/image/9e240ace6992ce52b047900b772147e560b697fd","width":200},{"height":36,"url":"https://i.scdn.co/image/253202313c39a511f0eae50b42fe2f06ebe9587b","width":64}],"name":"Made in Heights","popularity":51,"type":"artist","uri":"spotify:artist:71zBpZsf6YDEBfWayKdAOA"},{"external_urls":{"spotify":"https://open.spotify.com/artist/1anyVhU62p31KFi8MEzkbf"},"followers":{"href":null,"total":1442727},"genres":["pop rap","rap"],"href":"https://api.spotify.com/v1/artists/1anyVhU62p31KFi8MEzkbf","id":"1anyVhU62p31KFi8MEzkbf","images":[{"height":640,"url":"https://i.scdn.co/image/f5aceffb43876273fa72b7c3c002d7e3218075fd","width":640},{"height":320,"url":"https://i.scdn.co/image/5e4a5edf6132eb41bc71dd04cc9c92f30e256171","width":320},{"height":160,"url":"https://i.scdn.co/image/ff31d16413f7b9d6385947f81532f54c83128592","width":160}],"name":"Chance The Rapper","popularity":88,"type":"artist","uri":"spotify:artist:1anyVhU62p31KFi8MEzkbf"},{"external_urls":{"spotify":"https://open.spotify.com/artist/4gwpcMTbLWtBUlOijbVpuu"},"followers":{"href":null,"total":480620},"genres":["alternative dance","indie pop","indietronica","metropopolis","pop","shimmer pop"],"href":"https://api.spotify.com/v1/artists/4gwpcMTbLWtBUlOijbVpuu","id":"4gwpcMTbLWtBUlOijbVpuu","images":[{"height":647,"url":"https://i.scdn.co/image/b13ac3723875f19c74e946d18a74789030edd66a","width":1000},{"height":414,"url":"https://i.scdn.co/image/65b7a2f0844638e61ae3442f1b3432aeeac30807","width":640},{"height":129,"url":"https://i.scdn.co/image/bb168b68daa2026f35f1ea9c7aa36bf240d5f7da","width":199},{"height":41,"url":"https://i.scdn.co/image/852e67f6066f23cc5d85f9b6c1c65c624f8d3775","width":63}],"name":"Capital Cities","popularity":66,"type":"artist","uri":"spotify:artist:4gwpcMTbLWtBUlOijbVpuu"},{"external_urls":{"spotify":"https://open.spotify.com/artist/4IVAbR2w4JJNJDDRFP3E83"},"followers":{"href":null,"total":197055},"genres":["dwn trap","hip hop","indie r&b","pop rap","r&b","rap","southern hip hop","trap music","underground hip hop"],"href":"https://api.spotify.com/v1/artists/4IVAbR2w4JJNJDDRFP3E83","id":"4IVAbR2w4JJNJDDRFP3E83","images":[{"height":640,"url":"https://i.scdn.co/image/65eafe1cf3728bfc0b2bafc6caab215fdaf1ef9e","width":640},{"height":320,"url":"https://i.scdn.co/image/f40309de8f7240030ff114811569c9fb0bc61aac","width":320},{"height":160,"url":"https://i.scdn.co/image/18c5c98f320cdc0b6071cefc309b74ecdddd38e6","width":160}],"name":"6LACK","popularity":76,"type":"artist","uri":"spotify:artist:4IVAbR2w4JJNJDDRFP3E83"},{"external_urls":{"spotify":"https://open.spotify.com/artist/7gjAu1qr5C2grXeQFFOGeh"},"followers":{"href":null,"total":742810},"genres":["alternative dance","folk-pop","garage rock","indie pop","indie rock","indietronica","new rave","shimmer pop","synthpop"],"href":"https://api.spotify.com/v1/artists/7gjAu1qr5C2grXeQFFOGeh","id":"7gjAu1qr5C2grXeQFFOGeh","images":[{"height":1000,"url":"https://i.scdn.co/image/9485f6e49e69b1fc97f7403a1f19d61386bc02be","width":1000},{"height":640,"url":"https://i.scdn.co/image/57ba374417349aad6604f1001613f41bf1500f00","width":640},{"height":200,"url":"https://i.scdn.co/image/16a732c48e51479fbc5687d6eac78504c80dcbdd","width":200},{"height":64,"url":"https://i.scdn.co/image/f3ab893d88643c1a3acb0536d05f58687f6c5f85","width":64}],"name":"Passion Pit","popularity":68,"type":"artist","uri":"spotify:artist:7gjAu1qr5C2grXeQFFOGeh"},{"external_urls":{"spotify":"https://open.spotify.com/artist/2Q0MyH5YMI5HPQjFjlq5g3"},"followers":{"href":null,"total":804256},"genres":["australian alternative rock","downtempo","indie r&b","indietronica"],"href":"https://api.spotify.com/v1/artists/2Q0MyH5YMI5HPQjFjlq5g3","id":"2Q0MyH5YMI5HPQjFjlq5g3","images":[{"height":1333,"url":"https://i.scdn.co/image/b4b96f0f86f4aede9e87e1a0302a1c53669110ad","width":1000},{"height":853,"url":"https://i.scdn.co/image/bd3595e547c41aea06e9e98395ca60e169c16b0f","width":640},{"height":267,"url":"https://i.scdn.co/image/8ec7a0d97307a40dc8be581209c0909bad5cf627","width":200},{"height":85,"url":"https://i.scdn.co/image/7b54b0fb3258084de6988639957d28f8f407ea68","width":64}],"name":"Chet Faker","popularity":70,"type":"artist","uri":"spotify:artist:2Q0MyH5YMI5HPQjFjlq5g3"},{"external_urls":{"spotify":"https://open.spotify.com/artist/5INjqkS1o8h1imAzPqGZBb"},"followers":{"href":null,"total":1178213},"genres":["australian alternative rock","indie pop","indie rock","indietronica","neo-psychedelic","psychedelic rock"],"href":"https://api.spotify.com/v1/artists/5INjqkS1o8h1imAzPqGZBb","id":"5INjqkS1o8h1imAzPqGZBb","images":[{"height":666,"url":"https://i.scdn.co/image/11ea8d229100fedf2a98418ea2b83c86aa11bd9e","width":999},{"height":427,"url":"https://i.scdn.co/image/9ac0b3ef6b91d5e0e8e4cff06b734a5151f966e3","width":640},{"height":133,"url":"https://i.scdn.co/image/935f8705fb0a21a14b87f12626c0223e5daf88bc","width":200},{"height":43,"url":"https://i.scdn.co/image/dded51f1b0bf7a9981858e139d42dafa6b2a20e5","width":64}],"name":"Tame Impala","popularity":75,"type":"artist","uri":"spotify:artist:5INjqkS1o8h1imAzPqGZBb"},{"external_urls":{"spotify":"https://open.spotify.com/artist/0L8ExT028jH3ddEcZwqJJ5"},"followers":{"href":null,"total":3860966},"genres":["alternative rock","funk metal","funk rock","permanent wave","pop rock","rock"],"href":"https://api.spotify.com/v1/artists/0L8ExT028jH3ddEcZwqJJ5","id":"0L8ExT028jH3ddEcZwqJJ5","images":[{"height":640,"url":"https://i.scdn.co/image/5b2072e522bf3324019a8c2dc3db20116dff0b87","width":640},{"height":320,"url":"https://i.scdn.co/image/9527e700b5c80aa67350d5de0da10a0aa754fcb1","width":320},{"height":160,"url":"https://i.scdn.co/image/a7af6412632c81ebfb5e39495aa3dacc564cb22b","width":160}],"name":"Red Hot Chili Peppers","popularity":84,"type":"artist","uri":"spotify:artist:0L8ExT028jH3ddEcZwqJJ5"},{"external_urls":{"spotify":"https://open.spotify.com/artist/21mKp7DqtSNHhCAU2ugvUw"},"followers":{"href":null,"total":503229},"genres":["chillwave","edm","electronic trap","indietronica","ninja","tropical house"],"href":"https://api.spotify.com/v1/artists/21mKp7DqtSNHhCAU2ugvUw","id":"21mKp7DqtSNHhCAU2ugvUw","images":[{"height":640,"url":"https://i.scdn.co/image/1d24dc0773024f1c533a42aa413e3db8197147ae","width":640},{"height":320,"url":"https://i.scdn.co/image/4693035a584897bf60d9768008ba2e4eefb6d9f5","width":320},{"height":160,"url":"https://i.scdn.co/image/0b694aa8ede9b4e3d9517c330ea6ed26014dbe6a","width":160}],"name":"ODESZA","popularity":74,"type":"artist","uri":"spotify:artist:21mKp7DqtSNHhCAU2ugvUw"},{"external_urls":{"spotify":"https://open.spotify.com/artist/2Tz1DTzVJ5Gyh8ZwVr6ekU"},"followers":{"href":null,"total":166225},"genres":["alternative dance","chamber pop","chillwave","indie pop","indie psych-rock","indie rock","indietronica","neo-psychedelic","new rave","portland indie","shimmer pop","synthpop"],"href":"https://api.spotify.com/v1/artists/2Tz1DTzVJ5Gyh8ZwVr6ekU","id":"2Tz1DTzVJ5Gyh8ZwVr6ekU","images":[{"height":640,"url":"https://i.scdn.co/image/1962580d2c159bfc605a8b2c5fca8753d99cd16f","width":640},{"height":320,"url":"https://i.scdn.co/image/f6625e7bf49ba3464c58bc68ae9e2f0b80aad488","width":320},{"height":160,"url":"https://i.scdn.co/image/f030187c7a8d57563a340d1e54f06f1abd79def7","width":160}],"name":"STRFKR","popularity":62,"type":"artist","uri":"spotify:artist:2Tz1DTzVJ5Gyh8ZwVr6ekU"},{"external_urls":{"spotify":"https://open.spotify.com/artist/3XHO7cRUPCLOr6jwp8vsx5"},"followers":{"href":null,"total":1426183},"genres":["folk-pop","indie pop","indie rock"],"href":"https://api.spotify.com/v1/artists/3XHO7cRUPCLOr6jwp8vsx5","id":"3XHO7cRUPCLOr6jwp8vsx5","images":[{"height":640,"url":"https://i.scdn.co/image/7ac54cbec2f1b3f5f1b7f6fc23acb9d00c70fb51","width":640},{"height":320,"url":"https://i.scdn.co/image/592ac1bc107c62fbdd9e1e91e891577672fa6bb3","width":320},{"height":160,"url":"https://i.scdn.co/image/94874205e99b9e27b316ea8c559679b740bdb038","width":160}],"name":"alt-J","popularity":76,"type":"artist","uri":"spotify:artist:3XHO7cRUPCLOr6jwp8vsx5"},{"external_urls":{"spotify":"https://open.spotify.com/artist/4wO0kHiOwf8l9VMJJN9HmG"},"followers":{"href":null,"total":10397},"genres":["deep tropical house","indie poptimism","vapor soul"],"href":"https://api.spotify.com/v1/artists/4wO0kHiOwf8l9VMJJN9HmG","id":"4wO0kHiOwf8l9VMJJN9HmG","images":[{"height":960,"url":"https://i.scdn.co/image/35f04760e5f91964e390a2c95e27f184054b0021","width":960},{"height":640,"url":"https://i.scdn.co/image/f4d889d6215eaa7f603e9fcc652085ea89cd87c1","width":640},{"height":200,"url":"https://i.scdn.co/image/a05adcea750f6c912f703fa7c9af8505337577cc","width":200},{"height":64,"url":"https://i.scdn.co/image/327478d7642a5f73947dc1824024dc658caa2bb5","width":64}],"name":"Shoffy","popularity":64,"type":"artist","uri":"spotify:artist:4wO0kHiOwf8l9VMJJN9HmG"},{"external_urls":{"spotify":"https://open.spotify.com/artist/536BYVgOnRky0xjsPT96zl"},"followers":{"href":null,"total":1190604},"genres":["alternative dance","indie pop","indie rock","indietronica","irish rock","new rave","pop"],"href":"https://api.spotify.com/v1/artists/536BYVgOnRky0xjsPT96zl","id":"536BYVgOnRky0xjsPT96zl","images":[{"height":640,"url":"https://i.scdn.co/image/82384b3804078c69e0332e8f0ffdfbe1235199f9","width":640},{"height":320,"url":"https://i.scdn.co/image/f8192c2ffd87196ace969a6141f13c6799a163c1","width":320},{"height":160,"url":"https://i.scdn.co/image/f6be58fac7b0ed4552f0277e050f87a20615beff","width":160}],"name":"Two Door Cinema Club","popularity":74,"type":"artist","uri":"spotify:artist:536BYVgOnRky0xjsPT96zl"}],"total":25,"limit":20,"offset":0,"previous":null,"href":"https://api.spotify.com/v1/me/top/artists?time_range=short_term","next":"https://api.spotify.com/v1/me/top/artists?limit=20&offset=20&time_range=short_term"}